{
  "port": 27124,
  "insecurePort": 27123,
  "enableInsecureServer": true,
  "apiKey": "0ff0ea1ac1acb088551606713bfb74491a0469029d4f7a270133c08f2a74df3c",
  "crypto": {
    "cert": "-----BEGIN CERTIFICATE-----\r\nMIIDRTCCAi2gAwIBAgIBATANBgkqhkiG9w0BAQsFADAiMSAwHgYDVQQDExdPYnNp\r\nZGlhbiBMb2NhbCBSRVNUIEFQSTAeFw0yNDExMDQxNDUzMzZaFw0yNTExMDQxNDUz\r\nMzZaMCIxIDAeBgNVBAMTF09ic2lkaWFuIExvY2FsIFJFU1QgQVBJMIIBIjANBgkq\r\nhkiG9w0BAQEFAAOCAQ8AMIIBCgKCAQEAqu57tKYx4Ccic1r2axiAkJq3spgVh+Gs\r\no0YrL+RCGUCbZkZiLFHEnyzmIT5zet2Gvta+N130qPo1sK0rePSu86EOPRhHahXF\r\n2+IhYtsusX35e8KhtA6H5aH5QZhkWfzZzHcvDkejgzP8obmEpbjcQjNHrqnicDtR\r\nbJp/ALy9LF1w4w612R9P2LSHO5qs92HOmS999tvdjtNQcCbNOkWJsnZqWF/U4Co7\r\nrPcZofWJt6xXaxgWAS7PsAAVBXxvQQKrLUtfptmxT4g64FKOi/Rbw6MioUkXp3he\r\neJPOow7DSY7+mM5pjZjxbZITxVEM7f7yPUT5ogPG5KRoUtbnga2hZwIDAQABo4GF\r\nMIGCMA8GA1UdEwEB/wQFMAMBAf8wDgYDVR0PAQH/BAQDAgLEMDsGA1UdJQQ0MDIG\r\nCCsGAQUFBwMBBggrBgEFBQcDAgYIKwYBBQUHAwMGCCsGAQUFBwMEBggrBgEFBQcD\r\nCDARBglghkgBhvhCAQEEBAMCAPcwDwYDVR0RBAgwBocEfwAAATANBgkqhkiG9w0B\r\nAQsFAAOCAQEAP5/ao4q6uN/IdO+HRWAY+athAg7EOziMkre2KqptcibOU+w/37e3\r\n52nsW57AhJF5LVRegfhscP3jXYzGxhRLW7sBiLv7ZRnqODZJcA8P4H8vKIV0kntW\r\nETa3QmZcN9vDbU+KEzlfebXjo7Ah1pw0b7nqy0LQORyeHon3zRKgrg7Og+wF0ehf\r\nhAROhmPVbIhk7i3XTvJ+KcRZqfYCbXnA/yI5sTmF2I1sns6mpLmJ3YybYqZHWEe7\r\n2gWR9juxYepeXBOti4w+P0EJithKwnOV4pX8s+Wf0O5jMcTZChL6ep1/a40pxIAa\r\nsuj0cmY5lA3RtRGaBmG13xevx2AEpMLamQ==\r\n-----END CERTIFICATE-----\r\n",
    "privateKey": "-----BEGIN RSA PRIVATE KEY-----\r\nMIIEowIBAAKCAQEAqu57tKYx4Ccic1r2axiAkJq3spgVh+Gso0YrL+RCGUCbZkZi\r\nLFHEnyzmIT5zet2Gvta+N130qPo1sK0rePSu86EOPRhHahXF2+IhYtsusX35e8Kh\r\ntA6H5aH5QZhkWfzZzHcvDkejgzP8obmEpbjcQjNHrqnicDtRbJp/ALy9LF1w4w61\r\n2R9P2LSHO5qs92HOmS999tvdjtNQcCbNOkWJsnZqWF/U4Co7rPcZofWJt6xXaxgW\r\nAS7PsAAVBXxvQQKrLUtfptmxT4g64FKOi/Rbw6MioUkXp3heeJPOow7DSY7+mM5p\r\njZjxbZITxVEM7f7yPUT5ogPG5KRoUtbnga2hZwIDAQABAoIBAAYkabeVHUezwE4q\r\n3537lGsd1CoLwwJN/rkjRVwENMfZhXwIXXDAQ3OA1ogtSVMJ8NScvNsaejc0Poep\r\nwV0oVb0VdYCGhdJvE9wR5Sc7PxNLtpJW7R6eQw3iYyWTR0/ggScSxVMbCeomDRb2\r\npqiZ2vhaBWJmYmesCgIADz5Eifu1FMWfjfzsug2gBFGV+YMxVPt0t+LtZaXXFK/c\r\nDclb2Mk8zq3E5bM5tMLPRoceHMcTwJhEmjD3MbQ1pMSsR7Sg0uwuNfz4ftM7GDgZ\r\nUJHw4a6NAIH8sVBUT/PFgM0McnATTjrTBehQHEIrWdBAXTNS5N/teMcO+5oLnWtH\r\nGtp4iekCgYEA5nib3d2Q7da1kBRpBUNdZlajpwIGPS7+rNscSkrqH7dPAXuL7QKW\r\nOTmJCWN2LbTrrH2yW0uAHkXmY22Tz9xlF2P5ZwesAJPPdQ2S4zLztMosd9oGbarD\r\nz1Yeknh9wblyMmBzwe2YN4leRO/JGmrhJ4pp07mgNkJJPK6hbn9Bx5MCgYEAvd2I\r\nFVlKcdcomwO5arOZbDJF57xG8XFAvjirireFywuc0erlkthQ8K0KIIHTLqkDcrmG\r\nEs7AVtHEXOC8Vq3vC8vOT6y2yhdeY9vuOyLtWAH6Fb7Cd98toDExO3Q9y0MtZXra\r\noSzGEnSa3K7QFAb3Ej7wYKjSlu+fK1O11sJZ+10CgYAdXE4XBKv68Lhuo3sBlaRn\r\nbjApDYP39W2yXbOL72FGKxcgjDm2NvcmUSMZFBexGPRRJC49nS+0K5l/Hy2OdHhY\r\nc38JVhvecvYh5lnJIeuUI5For1jUTcXmOwVoCXuT22kl682zbe5PXOuqgpWvDOCk\r\nJej3dRVo9CbaWTDtn76kiwKBgEHEM7gZZtUKD1Gqt5ZDQdidjWNY70YA0clSPfFd\r\n4qVTj22TLRRxg4/qkIB0F9+owb4Cj3OCVFN+c8MsQXDQ7OWsIfmtPN/BuntimiG3\r\n1njOrn7LxfbZwqcjgwcyG5mF2nq1VHfR14ZbB617jC3zv699R6xjrhaESCEs7ObI\r\nCX0tAoGBAN3Y6+ncDybnDORNJE0bvs8x+CRwdxKNaDiUrgQ8uY5KGoEDv7zicNmw\r\n2uKhCl+2puKafCAxUw3yUryPaFTYaX4PN+RckoVpuzrFzv9vhy9a0nv1GT2PqPnX\r\nLNxb0GJFFbgjQGFJmdQ7aV4PC6vgkHeUOYc8wMterFGKJJT6jA1i\r\n-----END RSA PRIVATE KEY-----\r\n",
    "publicKey": "-----BEGIN PUBLIC KEY-----\r\nMIIBIjANBgkqhkiG9w0BAQEFAAOCAQ8AMIIBCgKCAQEAqu57tKYx4Ccic1r2axiA\r\nkJq3spgVh+Gso0YrL+RCGUCbZkZiLFHEnyzmIT5zet2Gvta+N130qPo1sK0rePSu\r\n86EOPRhHahXF2+IhYtsusX35e8KhtA6H5aH5QZhkWfzZzHcvDkejgzP8obmEpbjc\r\nQjNHrqnicDtRbJp/ALy9LF1w4w612R9P2LSHO5qs92HOmS999tvdjtNQcCbNOkWJ\r\nsnZqWF/U4Co7rPcZofWJt6xXaxgWAS7PsAAVBXxvQQKrLUtfptmxT4g64FKOi/Rb\r\nw6MioUkXp3heeJPOow7DSY7+mM5pjZjxbZITxVEM7f7yPUT5ogPG5KRoUtbnga2h\r\nZwIDAQAB\r\n-----END PUBLIC KEY-----\r\n"
  },
  "enableSecureServer": true
}