{
  "command_timeout": 5,
  "templates_folder": "templates",
  "templates_pairs": [
    [
      "",
      ""
    ]
  ],
  "trigger_on_file_creation": true,
  "auto_jump_to_cursor": true,
  "enable_system_commands": false,
  "shell_path": "",
  "user_scripts_folder": "",
  "enable_folder_templates": true,
  "folder_templates": [
    {
      "folder": "daily",
      "template": "templates/daily-notes.md"
    },
    {
      "folder": "posts",
      "template": "templates/post.md"
    }
  ],
  "enable_file_templates": false,
  "file_templates": [
    {
      "regex": ".*",
      "template": ""
    }
  ],
  "syntax_highlighting": true,
  "syntax_highlighting_mobile": true,
  "enabled_templates_hotkeys": [
    ""
  ],
  "startup_templates": [
    ""
  ]
}